ModuloTratamientoAgua/cores/mult/mult_TB.vcd
$date
	Sat Jun  8 10:28:30 2024
$end
$version
	Icarus Verilog
$end
$timescale
	1ps
$end
$scope module mult_TB $end
$var wire 32 ! result [31:0] $end
$var wire 1 " done $end
$var reg 1 # clk $end
$var reg 1 $ init $end
$var reg 16 % op_A [15:0] $end
$var reg 16 & op_B [15:0] $end
$var reg 1 ' reset $end
$scope module uut $end
$var wire 1 # clk $end
$var wire 1 $ init $end
$var wire 16 ( op_A [15:0] $end
$var wire 16 ) op_B [15:0] $end
$var wire 1 ' reset $end
$var reg 16 * A [15:0] $end
$var reg 16 + B [15:0] $end
$var reg 5 , count [4:0] $end
$var reg 1 " done $end
$var reg 32 - result [31:0] $end
$var reg 3 . state [2:0] $end
$var reg 320 / state_name [320:1] $end
$upscope $end
$scope begin TEST_CASE $end
$upscope $end
$upscope $end
$enddefinitions $end
#0
$dumpvars
bx /
bx .
b0 -
bx ,
bx +
bx *
b110011 )
b1010101 (
0'
b110011 &
b1010101 %
0$
0#
0"
b0 !
$end
#10000
b101001101010100010000010101001001010100 /
b0 .
1#
#20000
1'
0#
#30000
1#
#40000
0'
0#
#50000
b0 ,
1#
#60000
0#
#70000
1#
#80000
0#
#90000
1#
#100000
0#
#110000
1#
#120000
0#
#130000
b10100110101010001000001010100100101010000110001 /
b101 .
1$
1#
#140000
0#
#150000
b110011 +
b1010101 *
b100001101001000010001010100001101001011 /
b1 .
1#
#160000
0#
#170000
b10000010100010001000100 /
b11 .
1#
0$
#180000
0#
#190000
b1010101 !
b1010101 -
b101001101001000010010010100011001010100 /
b10 .
1#
#200000
0#
#210000
b100001101001000010001010100001101001011 /
b1 .
b10101010 *
b11001 +
1#
#220000
0#
#230000
b10000010100010001000100 /
b11 .
1#
#240000
0#
#250000
b11111111 !
b11111111 -
b101001101001000010010010100011001010100 /
b10 .
1#
#260000
0#
#270000
b100001101001000010001010100001101001011 /
b1 .
b101010100 *
b1100 +
1#
#280000
0#
#290000
b101001101001000010010010100011001010100 /
b10 .
1#
#300000
0#
#310000
b100001101001000010001010100001101001011 /
b1 .
b1010101000 *
b110 +
1#
#320000
0#
#330000
b101001101001000010010010100011001010100 /
b10 .
1#
#340000
0#
#350000
b100001101001000010001010100001101001011 /
b1 .
b10101010000 *
b11 +
1#
#360000
0#
#370000
b10000010100010001000100 /
b11 .
1#
#380000
0#
#390000
b11001001111 !
b11001001111 -
b101001101001000010010010100011001010100 /
b10 .
1#
#400000
0#
#410000
b100001101001000010001010100001101001011 /
b1 .
b101010100000 *
b1 +
1#
#420000
0#
#430000
b10000010100010001000100 /
b11 .
1#
#440000
0#
#450000
b1000011101111 !
b1000011101111 -
b101001101001000010010010100011001010100 /
b10 .
1#
#460000
0#
#470000
b10001010100111001000100 /
b100 .
b1010101000000 *
b0 +
1#
#480000
0#
#490000
b1 ,
1"
1#
#500000
0#
#510000
b10 ,
1#
#520000
0#
#530000
b11 ,
1#
#540000
0#
#550000
b100 ,
1#
#560000
0#
#570000
b101 ,
1#
#580000
0#
#590000
b110 ,
1#
#600000
0#
#610000
b111 ,
1#
#620000
0#
#630000
b1000 ,
1#
#640000
0#
#650000
b1001 ,
1#
#660000
0#
#670000
b1010 ,
1#
#680000
0#
#690000
b1011 ,
1#
#700000
0#
#710000
b1100 ,
1#
#720000
0#
#730000
b1101 ,
1#
#740000
0#
#750000
b1110 ,
1#
#760000
0#
#770000
b1111 ,
1#
#780000
0#
#790000
b10000 ,
1#
#800000
0#
#810000
b10001 ,
1#
#820000
0#
#830000
b10010 ,
1#
#840000
0#
#850000
b10011 ,
1#
#860000
0#
#870000
b10100 ,
1#
#880000
0#
#890000
b10101 ,
1#
#900000
0#
#910000
b10110 ,
1#
#920000
0#
#930000
b10111 ,
1#
#940000
0#
#950000
b11000 ,
1#
#960000
0#
#970000
b11001 ,
1#
#980000
0#
#990000
b11010 ,
1#
